^C:\USERS\АДМИН\SOURCE\REPOS\GITEXECISE\GITEXECISE\DEBUG\MAIN.OBJ
/OUT:"C:\USERS\АДМИН\SOURCE\REPOS\GITEXECISE\DEBUG\GITEXECISE.EXE" /INCREMENTAL /NOLOGO KERNEL32.LIB USER32.LIB GDI32.LIB WINSPOOL.LIB COMDLG32.LIB ADVAPI32.LIB SHELL32.LIB OLE32.LIB OLEAUT32.LIB UUID.LIB ODBC32.LIB ODBCCP32.LIB /MANIFEST /MANIFESTUAC:"level='asInvoker' uiAccess='false'" /manifest:embed /DEBUG:FASTLINK /PDB:"C:\USERS\АДМИН\SOURCE\REPOS\GITEXECISE\DEBUG\GITEXECISE.PDB" /SUBSYSTEM:CONSOLE /TLBID:1 /DYNAMICBASE /NXCOMPAT /IMPLIB:"C:\USERS\АДМИН\SOURCE\REPOS\GITEXECISE\DEBUG\GITEXECISE.LIB" /MACHINE:X86 DEBUG\MAIN.OBJ
^C:\USERS\АДМИН\SOURCE\REPOS\GITEXECISE\GITEXECISE\DEBUG\MAIN.OBJ|C:\USERS\АДМИН\SOURCE\REPOS\GITEXECISE\GITEXECISE\DEBUG\VECTOR2.OBJ
/OUT:"C:\USERS\АДМИН\SOURCE\REPOS\GITEXECISE\DEBUG\GITEXECISE.EXE" /INCREMENTAL /NOLOGO KERNEL32.LIB USER32.LIB GDI32.LIB WINSPOOL.LIB COMDLG32.LIB ADVAPI32.LIB SHELL32.LIB OLE32.LIB OLEAUT32.LIB UUID.LIB ODBC32.LIB ODBCCP32.LIB /MANIFEST /MANIFESTUAC:"level='asInvoker' uiAccess='false'" /manifest:embed /DEBUG:FASTLINK /PDB:"C:\USERS\АДМИН\SOURCE\REPOS\GITEXECISE\DEBUG\GITEXECISE.PDB" /SUBSYSTEM:CONSOLE /TLBID:1 /DYNAMICBASE /NXCOMPAT /IMPLIB:"C:\USERS\АДМИН\SOURCE\REPOS\GITEXECISE\DEBUG\GITEXECISE.LIB" /MACHINE:X86 DEBUG\MAIN.OBJ
DEBUG\VECTOR2.OBJ
