^C:\USERS\АДМИН\SOURCE\REPOS\GITEXECISE\GITEXECISE\X64\DEBUG\MAIN.OBJ|C:\USERS\АДМИН\SOURCE\REPOS\GITEXECISE\GITEXECISE\X64\DEBUG\VECTOR2.OBJ
C:\PROGRAM FILES (X86)\WINDOWS KITS\10\LIB\10.0.18362.0\UM\X64\KERNEL32.LIB
C:\PROGRAM FILES (X86)\WINDOWS KITS\10\LIB\10.0.18362.0\UM\X64\USER32.LIB
C:\PROGRAM FILES (X86)\WINDOWS KITS\10\LIB\10.0.18362.0\UM\X64\GDI32.LIB
C:\PROGRAM FILES (X86)\WINDOWS KITS\10\LIB\10.0.18362.0\UM\X64\WINSPOOL.LIB
C:\PROGRAM FILES (X86)\WINDOWS KITS\10\LIB\10.0.18362.0\UM\X64\COMDLG32.LIB
C:\PROGRAM FILES (X86)\WINDOWS KITS\10\LIB\10.0.18362.0\UM\X64\ADVAPI32.LIB
C:\PROGRAM FILES (X86)\WINDOWS KITS\10\LIB\10.0.18362.0\UM\X64\SHELL32.LIB
C:\PROGRAM FILES (X86)\WINDOWS KITS\10\LIB\10.0.18362.0\UM\X64\OLE32.LIB
C:\PROGRAM FILES (X86)\WINDOWS KITS\10\LIB\10.0.18362.0\UM\X64\OLEAUT32.LIB
C:\PROGRAM FILES (X86)\WINDOWS KITS\10\LIB\10.0.18362.0\UM\X64\UUID.LIB
C:\PROGRAM FILES (X86)\WINDOWS KITS\10\LIB\10.0.18362.0\UM\X64\ODBC32.LIB
C:\PROGRAM FILES (X86)\WINDOWS KITS\10\LIB\10.0.18362.0\UM\X64\ODBCCP32.LIB
C:\USERS\админ\SOURCE\REPOS\GITEXECISE\GITEXECISE\X64\DEBUG\MAIN.OBJ
C:\USERS\админ\SOURCE\REPOS\GITEXECISE\GITEXECISE\X64\DEBUG\VECTOR2.OBJ
C:\WINDOWS\SYSTEM32\TZRES.DLL
C:\WINDOWS\GLOBALIZATION\SORTING\SORTDEFAULT.NLS
C:\PROGRAMS\VISUAL STUDIO\VC\TOOLS\MSVC\14.28.29333\LIB\X64\MSVCPRTD.LIB
C:\PROGRAMS\VISUAL STUDIO\VC\TOOLS\MSVC\14.28.29333\LIB\X64\MSVCRTD.LIB
C:\PROGRAMS\VISUAL STUDIO\VC\TOOLS\MSVC\14.28.29333\LIB\X64\OLDNAMES.LIB
C:\PROGRAMS\VISUAL STUDIO\VC\TOOLS\MSVC\14.28.29333\LIB\X64\VCRUNTIMED.LIB
C:\PROGRAM FILES (X86)\WINDOWS KITS\10\LIB\10.0.18362.0\UCRT\X64\UCRTD.LIB
